sigora Wrapper function — sigoraWrappR • prora
…
#> 943  1.000e+00  1.000e+00      0.07        0.64 117944.7    11807.22
#> 944  1.000e+00  1.000e+00      0.47        3.62 117944.7    11807.22
#> 945  1.000e+00  1.000e+00      0.42        5.41 117944.7    11807.22
#> 946  1.000e+00  1.000e+00     34.22      685.26 117944.7    11807.22
#> 947  1.000e+00  1.000e+00      0.31        1.43 117944.7    11807.22
#> 948  1.000e+00  1.000e+00      0.40        2.83 117944.7    11807.22
#> 949  1.000e+00  1.000e+00      0.64        1.41 117944.7    11807.22
#> 950  1.000e+00  1.000e+00      0.76       40.46 117944.7    11807.22
#> 951  1.000e+00  1.000e+00      0.10        0.51 117944.7    11807.22
#> 952  1.000e+00  1.000e+00      0.18        3.85 117944.7    11807.22
#> 953  1.000e+00  1.000e+00      0.37        1.93 117944.7    11807.22
#> 954  1.000e+00  1.000e+00      0.26        1.55 117944.7    11807.22
res$data

#> # A tibble: 3,824 x 2
#>    UniprotID estimate
#>    <chr>        <dbl>
#>  1 Q9BRQ0      0.514 
#>  2 P13645     -2.33  
#>  3 Q9Y4F1      0.240 
#>  4 P14550     -0.360 
#>  5 P61011     -0.0803
#>  6 Q96NC0     -1.38  
#>  7 Q15417      0.108 
#>  8 P31350     -0.468 
#>  9 O60664      1.83  
#> 10 O95639      0.199 
#> # ... with 3,814 more rows
…
